Seminal plasma anti-Müllerian hormone (AMH) (pmol/L),Serum total testosterone (nmol/L),Serum oestradiol (nmol/L),"Serum sex hormone-binding globulin, SHBG (nmol/L)","Serum follicle-stimulating hormone, FSH (IU/L)","Serum Luteinizing hormone, LH (IU/L)",Serum inhibin B (ng/L),"Serum anti-Müllerian hormone, AMH (pmol/L)",Abstinence time(days),Body mass index (kg/m²),Age (years),Sperm concentration (x10⁶/mL),Ejaculate volume (mL),Sperm vitality (%),Normal spermatozoa (%),Head defects (%),Midpiece and neck defects (%),Tail defects (%),Teratozoospermia index,video,class_labels
64,16.8,0.13,15,2.3,4.2,289,54,4.0,32.5,36,105.3,3.5,81,2.0,98.0,11.2,38.0,1.54,1_09.09.02_SSW.avi,0
423,15.0,0.15,43,7.2,2.7,164,19,4.0,33.7,61,45.4,3.1,50,3.0,97.0,8.5,24.5,1.36,2_09.09.03_lots of debris_SSW.avi,2
37,8.2,0.18,32,4.2,4.8,67,47,2.0,62.7,51,50.0,2.5,90,6.9,90.6,32.8,14.3,1.51,3_11.01.21_JMA.avi,2
257,11.2,0.15,11,8.5,5.6,132,29,2.5,45.5,38,42.9,2.4,80,2.8,96.5,24.1,23.1,1.53,4_11.03.29_HH.avi,2
2203,11.9,0.14,18,2.6,2.1,139,68,3.0,51.0,33,32.8,4.8,90,3.2,95.0,32.5,15.7,1.56,5_11.05.04_JMA.avi,0
521,10.2,0.15,26,4.9,1.1,188,31,20.0,47.9,50,52.0,4.4,75,3.0,96.5,30.8,33.3,1.68,6_12.02.08_drift_HH.avi,2
228,14.1,0.18,28,3.8,4.8,91,31,5.0,41.4,45,13.0,1.6,52,3.0,95.5,38.6,19.9,1.62,7_12.02.20_minor drift_HH.avi,2
32,14.7,0.13,31,4.4,5.5,160,43,3.0,40.8,28,21.0,7.3,86,6.7,90.8,35.3,7.5,1.48,8_12.02.21_minor drift_HH.avi,0
4,9.1,0.14,27,4.3,1.4,115,23,7.0,41.8,59,89.0,5.8,40,2.5,97.0,14.1,29.1,1.45,9_12.03.06_minor drift_HH.avi,1
43,8.6,0.17,26,6.7,5.3,69,12,2.5,54.2,47,40.0,2.4,73,4.7,91.8,24.1,28.1,1.52,10_12.03.12_minor drift_HH.avi,1
69,18.4,0.15,30,3.35,3.46,197,14,3.0,28.8,41,97.0,1.3,80,2.4,97.0,28.0,9.7,1.45,11_09.01.23_JMA.avi,2
1,12.8,0.14,23,3.36,2.24,194,44,3.5,29.8,30,29.4,7.3,94,2.5,96.0,33.3,14.9,1.55,12_09.01.23_SSW.avi,1
131,25.8,0.18,39,4.68,8.9,194,38,1.0,28.1,44,74.4,1.8,88,3.9,96.0,31.0,5.8,1.42,13_09.01.26_SSW.avi,2
1,11.4,0.16,16,8.39,3.06,58,10,3.0,34.7,40,3.8,1.8,96,4.0,96.0,36.0,17.0,1.63,14_09.01.27_SSW.avi,1
5,23.9,0.14,33,5.78,2.58,129,29,4.0,30.9,39,4.0,1.4,93,0.0,100.0,50.5,21.5,1.78,15_09.01.28_SSW.avi,1
304,17.4,0.15,24,1.69,2.1,139,43,6.0,31.2,23,305.0,4.2,94,3.4,96.6,29.1,3.4,1.35,16_09.01.28_SSW.avi,0
323,15.9,0.13,22,5.001,4.18,231,28,3.0,29.7,36,58.7,2.9,92,1.4,98.6,35.1,13.3,1.54,17_09.01.29_SSW.avi,0
389,29.1,0.16,60,5.94,4.17,158,35,6.0,29.4,32,93.1,3.4,93,3.0,97.0,19.0,10.0,1.33,18_09.01.29_SSW.avi,0
52,25.1,0.19,36,14.2,10.3,118,28,3.0,31.7,46,14.5,4.8,93,2.0,98.0,38.0,15.0,1.62,19_10.01.06_JMA.avi,0
40,16.4,0.12,23,2.45,5.69,162,46,3.0,34.4,27,70.9,5.9,95,2.5,97.5,34.0,8.0,1.44,20_09.02.02_JMA.avi,0
27,12.4,0.13,21,6.02,5.04,89,24,4.0,36.2,33,28.1,4.5,95,1.5,98.5,39.0,20.5,1.64,21_09.02.03_JMA.avi,2
1,28.4,0.22,31,6.35,4.15,108,28,1.0,29.2,30,12.0,4.2,75,1.5,99.0,31.0,20.0,1.57,22_09.02.04_SSW.avi,0
2,12.8,0.14,15,2.76,3.84,139,26,2.0,31.8,24,4.5,4.1,85,3.0,97.0,31.0,19.0,1.57,23_09.02.04_SSW.avi,2
37,4.0,0.14,7,4.68,3.32,170,30,-1.0,34.1,50,159.0,1.7,95,2.4,97.6,25.5,17.8,1.48,24_09.02.04_SSW.avi,2
248,13.3,0.14,32,4.94,2.8,154,85,3.5,29.1,48,120.3,5.0,95,2.9,97.0,28.0,19.0,1.5,25_09.02.06_IVS.avi,0
62,11.2,0.17,11,3.8,3.9,110,92,3.0,33.2,30,86.8,5.2,95,4.0,96.0,50.2,9.5,1.67,26_09.02.12_IVS.avi,0
2167,12.4,0.13,31,1.1,3.1,308,79,4.0,29.3,34,192.0,2.8,94,3.5,96.6,26.1,6.4,1.36,27_09.02.18_IVS.avi,0
1,14.4,0.16,26,1.6,2.9,201,38,3.5,45.0,34,6.8,5.0,65,2.5,98.5,16.3,22.3,1.45,28_09.06.05_SSW.avi,0
1,14.6,0.14,31,10.4,8.4,110,49,2.0,27.9,45,4.2,4.8,81,1.5,98.5,26.0,30.0,1.61,29_09.03.12_SSW.avi,2
17,14.6,0.13,29,4.6,4.2,163,21,4.0,31.7,31,39.6,6.4,91,2.0,98.0,23.3,15.5,1.43,30_09.03.25_SSW.avi,1
3,8.5,0.09,25,6.1,1.5,130,37,6.0,27.5,48,350.0,1.4,92,1.4,97.7,28.0,9.0,1.44,31_10.04.22_JMA.avi,0
4,17.6,0.15,42,4.6,4.7,154,41,5.0,29.8,42,99.0,5.1,82,4.0,95.5,17.8,12.4,1.37,32_09.06.23_OW.avi,0
40,6.6,0.16,12,3.3,3.9,174,44,3.0,31.5,39,54.9,1.9,87,1.5,98.5,14.4,20.8,1.36,33_09.06.25_OW.avi,0
2762,10.6,0.14,23,4.6,5.8,170,73,5.0,28.9,36,116.0,3.6,69,1.0,99.0,13.7,18.1,1.35,34_09.06.26_OW.avi,2
229,16.4,0.16,33,4.1,3.5,154,44,7.0,27.2,35,33.8,7.6,83,3.0,97.0,13.8,18.7,1.39,35_09.06.29_OW.avi,2
59,9.5,0.13,24,8.1,5.3,116,18,3.0,36.4,50,53.6,2.6,73,2.9,97.1,12.2,21.5,1.37,36_09.07.01_OW.avi,0
1093,15.7,0.16,26,3.3,4.1,243,176,3.0,33.7,31,160.3,3.0,87,1.4,98.6,17.0,21.7,1.43,37_09.07.27_SSW.avi,0
11,11.3,0.15,8,4.8,4.6,65,67,3.0,34.6,32,12.3,10.0,84,4.5,95.5,12.4,12.9,1.32,38_09.08.24_SSW.avi,0
3440,16.9,0.13,29,1.6,2.1,258,51,2.0,31.4,41,148.5,3.8,93,3.4,96.6,7.3,8.3,1.21,39_09.09.16_SSW.avi,0
7,12.3,0.14,15,2.5,7.4,179,34,3.0,30.0,29,68.9,3.6,89,3.4,96.6,11.8,14.8,1.31,40_09.09.25_SSW.avi,1
1,13.8,0.14,22,3.7,4.0,208,55,3.0,35.8,43,89.6,4.0,92,2.4,97.6,10.2,16.6,1.32,41_09.10.12_minor drift_SSW.avi,1
538,16.3,0.15,23,3.5,3.3,185,61,3.0,27.5,43,33.0,5.6,85,2.0,97.5,17.3,12.4,1.31,42_09.10.13_minor drift_SSW.avi,0
144,13.9,0.15,17,2.0,2.6,248,51,3.0,31.3,32,190.3,3.4,91,6.4,93.6,9.9,4.0,1.16,43_09.10.14_drift_SSW.avi,0
40,18.2,0.14,38,4.5,2.8,173,66,2.5,27.4,41,98.4,2.2,84,1.5,98.0,16.7,9.9,1.28,44_09.10.14_drift_SSW.avi,0
999,16.0,0.16,37,4.7,3.0,170,30,6.0,34.0,47,126.0,4.1,86,2.5,97.5,12.0,13.5,1.32,45_09.10.16_SSW.avi,0
56,11.3,0.14,23,5.9,5.6,124,33,3.0,30.5,59,33.4,2.5,70,0.5,99.5,14.8,32.0,1.5,46_09.10.19_minor drift_SSW.avi,2
12,11.7,0.11,20,4.4,2.7,125,17,4.0,29.3,59,30.5,3.6,78,1.0,99.0,8.5,51.7,1.62,47_09.10.19_SSW.avi,2
29,14.2,0.14,36,3.8,5.6,201,34,3.0,33.7,33,46.7,3.6,84,5.2,94.3,14.7,11.4,1.31,48_09.10.20_SSW.avi,0
34,16.9,0.13,36,2.3,3.1,298,65,1.0,34.2,23,31.1,2.7,73,0.5,99.5,30.7,7.9,1.42,49_09.12.02_OW.avi,2
243,12.2,0.15,29,4.4,1.8,184,26,2.5,27.6,57,208.8,2.2,79,1.0,96.6,37.6,4.4,1.42,50_09.11.16_SSW.avi,0
437,14.5,0.14,25,3.0,1.9,179,92,3.0,30.0,29,124.8,4.5,86,2.4,97.0,14.6,8.3,1.29,51_09.11.25_SSW.avi,0
1,24.2,0.14,24,11.0,4.6,74,33,2.5,29.1,32,6.9,2.6,70,3.0,95.0,31.3,7.5,1.39,52_09.12.03_drift_SSW.avi,2
271,9.2,0.12,13,2.8,2.81,213,45,5.0,36.2,38,68.9,1.7,92,5.5,91.5,43.0,14.0,1.63,53_10.01.07_OW.avi,0
1,17.2,0.14,21,3.9,9.2,139,21,2.5,28.8,33,19.8,3.6,95,1.5,98.5,39.0,14.5,1.74,54_10.01.14_JMA.avi,2
53,19.1,0.13,32,4.2,4.2,196,58,4.0,27.4,42,138.0,2.5,94,5.3,92.7,26.7,14.6,1.44,55_10.12.13_JMA.avi,0
256,9.5,0.11,20,1.5,0.9,237,54,3.0,31.7,41,186.0,4.4,96,4.8,94.0,27.7,10.0,1.43,56_10.12.16_HH.avi,0
32,29.3,0.2,42,4.7,7.4,171,33,2.5,23.5,27,47.0,2.9,90,0.9,97.3,20.7,8.3,1.33,57_10.12.15_JMA.avi,0
19,19.0,0.13,39,2.5,5.2,216,125,4.0,26.6,22,62.0,3.2,95,5.0,95.0,14.5,2.5,1.21,58_11.01.27_JMA.avi,0
2,21.0,0.11,41,3.8,2.5,199,51,4.0,18.8,25,50.0,8.0,87,3.9,95.1,21.5,9.7,1.34,59_11.02.03_HH.avi,0
28,30.3,0.15,31,4.8,5.5,251,129,3.0,20.8,27,13.4,6.0,87,5.5,93.5,15.5,10.0,1.3,60_11.02.04_JMA.avi,1
271,20.9,0.15,33,2.0,3.5,195,21,3.0,23.0,36,78.2,5.7,96,4.3,95.7,21.8,6.6,1.33,61_11.02.04_JMA.avi,0
206,20.5,0.1,60,2.6,2.6,405,74,2.5,24.5,51,70.0,5.2,86,6.2,92.8,15.8,8.6,1.27,62_11.02.09_JMA.avi,0
8,12.5,0.09,22,1.1,2.1,254,108,7.0,22.0,26,61.0,6.8,87,3.0,97.0,28.0,30.0,1.63,63_11.02.10_JMA.avi,2
8,20.0,0.13,24,3.9,7.2,138,39,3.0,23.1,25,104.0,6.4,96,6.2,91.4,16.3,9.1,1.25,64_11.02.10_JMA.avi,0
34,18.0,0.11,31,1.5,4.4,377,66,3.0,26.4,30,120.0,3.8,96,3.1,96.7,24.5,8.9,1.48,65_11.02.15_HH.avi,0
40,30.5,0.19,37,3.1,5.3,192,55,5.5,19.8,25,42.0,4.9,75,0.0,100.0,49.3,14.3,1.71,66_11.02.16_HH.avi,0
290,18.9,0.1,30,2.7,3.1,207,46,6.0,23.7,29,149.0,5.4,95,7.8,90.6,19.9,5.5,1.28,67_11.02.16_JMA.avi,0
2,20.4,0.13,40,4.1,3.8,188,42,2.0,25.9,27,26.8,5.0,97,5.7,92.6,18.2,4.4,1.27,68_11.02.17_HH.avi,0
